[
  {
    "Id": 1,
    "Name": "Shinoop",
    "Age": 30,
    "Email": "test@gmail.com",
    "Address": "test address",
    "Mobile": "8989898989"
  },
  {
    "Id": 2,
    "Name": "Manoj Prabakar",
    "Age": 26,
    "Email": "manojjjj@gmail.com",
    "Address": "test adres",
    "Mobile": "989898"
  }
]